/home/cmpto/deltaCast/install/Drivers/HD/x64/delta-hd.ko
/home/cmpto/deltaCast/install/Drivers/HD/x64/CommonBufMngr_Linux.o /home/cmpto/deltaCast/install/Drivers/HD/x64/DriverAccess.o /home/cmpto/deltaCast/install/Drivers/HD/x64/DriverEntry.o /home/cmpto/deltaCast/install/Drivers/HD/x64/DrvParam.o /home/cmpto/deltaCast/install/Drivers/HD/x64/EventMngr_Linux.o /home/cmpto/deltaCast/install/Drivers/HD/x64/KernelObjects.o /home/cmpto/deltaCast/install/Drivers/HD/x64/KernelSysCall.o /home/cmpto/deltaCast/install/Drivers/HD/x64/LinuxAllocator.o /home/cmpto/deltaCast/install/Drivers/HD/x64/LinuxDrvHlp.o /home/cmpto/deltaCast/install/Drivers/HD/x64/USBufMngr_Linux.o /home/cmpto/deltaCast/install/Drivers/HD/x64/KThreadMngr.o /home/cmpto/deltaCast/install/Drivers/HD/x64/InterlockedOp.o /home/cmpto/deltaCast/install/Drivers/HD/x64/Board.o /home/cmpto/deltaCast/install/Drivers/HD/x64/BufMngr.o /home/cmpto/deltaCast/install/Drivers/HD/x64/DMABufMngr.o /home/cmpto/deltaCast/install/Drivers/HD/x64/DMAMngr.o /home/cmpto/deltaCast/install/Drivers/HD/x64/PropertiesMngr.o /home/cmpto/deltaCast/install/Drivers/HD/x64/ShadowRegisters.o /home/cmpto/deltaCast/install/Drivers/HD/x64/SkelDrv.o /home/cmpto/deltaCast/install/Drivers/HD/x64/CommonBufMngr.o /home/cmpto/deltaCast/install/Drivers/HD/x64/KernelObjectCommon.o /home/cmpto/deltaCast/install/Drivers/HD/x64/SkelProperties.o /home/cmpto/deltaCast/install/Drivers/HD/x64/Stream.o /home/cmpto/deltaCast/install/Drivers/HD/x64/StreamProperties.o /home/cmpto/deltaCast/install/Drivers/HD/x64/PCIeBridge.o /home/cmpto/deltaCast/install/Drivers/HD/x64/SPI.o /home/cmpto/deltaCast/install/Drivers/HD/x64/Firmware.o /home/cmpto/deltaCast/install/Drivers/HD/x64/FPGA_DMAController.o /home/cmpto/deltaCast/install/Drivers/HD/x64/USBufMngr.o /home/cmpto/deltaCast/install/Drivers/HD/x64/ArmUart.o /home/cmpto/deltaCast/install/Drivers/HD/x64/Gennum.o /home/cmpto/deltaCast/install/Drivers/HD/x64/DrvDbg.o /home/cmpto/deltaCast/install/Drivers/HD/x64/EventMngr.o

