/home/cmpto/deltaCast/install/Drivers/X300/x64/delta-x300.ko
/home/cmpto/deltaCast/install/Drivers/X300/x64/CommonBufMngr_Linux.o /home/cmpto/deltaCast/install/Drivers/X300/x64/DriverAccess.o /home/cmpto/deltaCast/install/Drivers/X300/x64/DriverEntry.o /home/cmpto/deltaCast/install/Drivers/X300/x64/DrvParam.o /home/cmpto/deltaCast/install/Drivers/X300/x64/EventMngr_Linux.o /home/cmpto/deltaCast/install/Drivers/X300/x64/KernelObjects.o /home/cmpto/deltaCast/install/Drivers/X300/x64/KernelSysCall.o /home/cmpto/deltaCast/install/Drivers/X300/x64/LinuxAllocator.o /home/cmpto/deltaCast/install/Drivers/X300/x64/LinuxDrvHlp.o /home/cmpto/deltaCast/install/Drivers/X300/x64/USBufMngr_Linux.o /home/cmpto/deltaCast/install/Drivers/X300/x64/KThreadMngr.o /home/cmpto/deltaCast/install/Drivers/X300/x64/InterlockedOp.o /home/cmpto/deltaCast/install/Drivers/X300/x64/Board.o /home/cmpto/deltaCast/install/Drivers/X300/x64/BufMngr.o /home/cmpto/deltaCast/install/Drivers/X300/x64/DMABufMngr.o /home/cmpto/deltaCast/install/Drivers/X300/x64/DMAMngr.o /home/cmpto/deltaCast/install/Drivers/X300/x64/PropertiesMngr.o /home/cmpto/deltaCast/install/Drivers/X300/x64/ShadowRegisters.o /home/cmpto/deltaCast/install/Drivers/X300/x64/SkelDrv.o /home/cmpto/deltaCast/install/Drivers/X300/x64/CommonBufMngr.o /home/cmpto/deltaCast/install/Drivers/X300/x64/KernelObjectCommon.o /home/cmpto/deltaCast/install/Drivers/X300/x64/SkelProperties.o /home/cmpto/deltaCast/install/Drivers/X300/x64/Stream.o /home/cmpto/deltaCast/install/Drivers/X300/x64/StreamProperties.o /home/cmpto/deltaCast/install/Drivers/X300/x64/PCIeBridge_ADVLP.o /home/cmpto/deltaCast/install/Drivers/X300/x64/FPGA_DMAController_ADVLP.o /home/cmpto/deltaCast/install/Drivers/X300/x64/USBufMngr.o /home/cmpto/deltaCast/install/Drivers/X300/x64/ArmUart.o /home/cmpto/deltaCast/install/Drivers/X300/x64/DrvDbg.o /home/cmpto/deltaCast/install/Drivers/X300/x64/EventMngr.o /home/cmpto/deltaCast/install/Drivers/X300/x64/NorFlash.o /home/cmpto/deltaCast/install/Drivers/X300/x64/X300DrvBoard.o /home/cmpto/deltaCast/install/Drivers/X300/x64/X320DrvBoard.o /home/cmpto/deltaCast/install/Drivers/X300/x64/X330DrvBoard.o /home/cmpto/deltaCast/install/Drivers/X300/x64/X300Drv_Firmware.o /home/cmpto/deltaCast/install/Drivers/X300/x64/X320Drv_Firmware.o /home/cmpto/deltaCast/install/Drivers/X300/x64/X330Drv_Firmware.o /home/cmpto/deltaCast/install/Drivers/X300/x64/MailboxMngr.o

